<?xml version="1.0" encoding="UTF-8" standalone="no"?>
<svg
   xmlns:dc="http://purl.org/dc/elements/1.1/"
   xmlns:cc="http://creativecommons.org/ns#"
   xmlns:rdf="http://www.w3.org/1999/02/22-rdf-syntax-ns#"
   xmlns:svg="http://www.w3.org/2000/svg"
   xmlns="http://www.w3.org/2000/svg"
   xmlns:sodipodi="http://sodipodi.sourceforge.net/DTD/sodipodi-0.dtd"
   xmlns:inkscape="http://www.inkscape.org/namespaces/inkscape"
   version="1.1"
   id="filter_shape"
   x="0px"
   y="0px"
   width="402.577px"
   height="402.577px"
   viewBox="0 0 402.577 402.577"
   style="enable-background:new 0 0 402.577 402.577;"
   xml:space="preserve"
   inkscape:version="0.91 r13725"
   sodipodi:docname="filter_shape.svg"><metadata
     id="metadata11"><rdf:RDF><cc:Work
         rdf:about=""><dc:format>image/svg+xml</dc:format><dc:type
           rdf:resource="http://purl.org/dc/dcmitype/StillImage" /></cc:Work></rdf:RDF></metadata><defs
     id="defs9" /><sodipodi:namedview
     pagecolor="#ffffff"
     bordercolor="#666666"
     borderopacity="1"
     objecttolerance="10"
     gridtolerance="10"
     guidetolerance="10"
     inkscape:pageopacity="0"
     inkscape:pageshadow="2"
     inkscape:window-width="1233"
     inkscape:window-height="1000"
     id="namedview7"
     showgrid="false"
     inkscape:zoom="0.58622326"
     inkscape:cx="361.46826"
     inkscape:cy="197.87683"
     inkscape:window-x="47"
     inkscape:window-y="24"
     inkscape:window-maximized="1"
     inkscape:current-layer="filter_shape" /><g
     id="g3"
     style="fill:none;stroke:#000000;stroke-width:43.1015625;stroke-miterlimit:4;stroke-dasharray:none;stroke-opacity:1"
     transform="matrix(0.90499883,0,0,0.90499883,19.123234,19.123093)"><path
       d="M 400.858,11.427 C 397.617,4.006 392.008,0.295 384.004,0.291 l -365.44,0 c -7.993,0 -13.61,3.715 -16.846,11.136 -3.234,7.801 -1.903,14.467 3.999,19.985 l 140.757,140.753 0,138.755 c 0,4.955 1.809,9.232 5.424,12.854 l 73.085,73.083 c 3.429,3.614 7.71,5.428 12.851,5.428 2.282,0 4.66,-0.479 7.135,-1.43 7.426,-3.238 11.14,-8.851 11.14,-16.845 l 0,-211.844 140.752,-140.753 c 5.904,-5.518 7.232,-12.182 3.997,-19.986 z"
       id="path5"
       style="fill:none;stroke:#000000;stroke-width:43.1015625;stroke-miterlimit:4;stroke-dasharray:none;stroke-opacity:1"
       inkscape:connector-curvature="0" /></g></svg>